{
  "log": {
    // Log level, one of "debug", "info", "warning", "error", "none"
    "loglevel": "warning"
  },
  // List of inbound proxy configurations.
  "inbounds": [
    {
      "port": 8080,
      "listen": "0.0.0.0",
      "tag": "vnode-inbound",
      "protocol": "vmess",
      "settings": {
        // Change this
        "users": [
          "e2dc4203-eaf6-4267-9406-2c3bd5e75f9c"
        ]
      },
      "streamSettings": {
        "transport": "ws",
        "transportSettings": {
          "path": "/data"
        }
      },
      "sniffing": {
        "enabled": true,
        "destOverride": [
          "http",
          "tls"
        ]
      }
    }
  ],
  "outbounds": [
    {
      "protocol": "freedom",
      "settings": {},
      "tag": "direct"
    },
    {
      "protocol": "blackhole",
      "settings": {},
      "tag": "blocked"
    }
  ],
  "routing": {
    "domainStrategy": "IPOnDemand",
    "rules": [
      {
        "type": "field",
        "ip": [
          "geoip:private"
        ],
        "outboundTag": "blocked"
      }
    ]
  },
  "dns": {
    "servers": [
      "1.1.1.1",
      "8.8.8.8"
    ]
  },
  "policy": {
    "levels": {
      "0": {
        "uplinkOnly": 0,
        "downlinkOnly": 0
      }
    },
    "system": {
      "statsInboundUplink": false,
      "statsInboundDownlink": false,
      "statsOutboundUplink": false,
      "statsOutboundDownlink": false
    }
  }
}